…
To remove missing observations, simply use negation: `filter(!is.na(height))`. Try this yourself.



# 2) dplyr::arrange


```r
starwars %>% 
  arrange(birth_year)
```

```
## # A tibble: 87 × 14
##    name     height  mass hair_color skin_color eye_color birth_year sex   gender
##    <chr>     <int> <dbl> <chr>      <chr>      <chr>          <dbl> <chr> <chr> 
##  1 Wicket …     88  20   brown      brown      brown            8   male  mascu…
##  2 IG-88       200 140   none       metal      red             15   none  mascu…
##  3 Luke Sk…    172  77   blond      fair       blue            19   male  mascu…
##  4 Leia Or…    150  49   brown      light      brown           19   fema… femin…
##  5 Wedge A…    170  77   brown      fair       hazel           21   male  mascu…
##  6 Plo Koon    188  80   none       orange     black           22   male  mascu…
##  7 Biggs D…    183  84   black      light      brown           24   male  mascu…
##  8 Han Solo    180  80   brown      fair       brown           29   male  mascu…
##  9 Lando C…    177  79   black      dark       brown           31   male  mascu…
## 10 Boba Fe…    183  78.2 black      fair       brown           31.5 male  mascu…
## # … with 77 more rows, and 5 more variables: homeworld <chr>, species <chr>,
## #   films <list>, vehicles <list>, starships <list>
```


*Note.* Arranging on a character-based column (i.e. strings) will sort alphabetically. Try this yourself by arranging according to the "name" column.



We can also arrange items in descending order using `arrange(desc())`.

```r
starwars %>% 
  arrange(desc(birth_year))
```

```
## # A tibble: 87 × 14
##    name    height  mass hair_color skin_color  eye_color birth_year sex   gender
##    <chr>    <int> <dbl> <chr>      <chr>       <chr>          <dbl> <chr> <chr> 
##  1 Yoda        66    17 white      green       brown            896 male  mascu…
##  2 Jabba …    175  1358 <NA>       green-tan,… orange           600 herm… mascu…
##  3 Chewba…    228   112 brown      unknown     blue             200 male  mascu…
##  4 C-3PO      167    75 <NA>       gold        yellow           112 none  mascu…
##  5 Dooku      193    80 white      fair        brown            102 male  mascu…
##  6 Qui-Go…    193    89 brown      fair        blue              92 male  mascu…
##  7 Ki-Adi…    198    82 white      pale        yellow            92 male  mascu…
##  8 Finis …    170    NA blond      fair        blue              91 male  mascu…
##  9 Palpat…    170    75 grey       pale        yellow            82 male  mascu…
## 10 Cliegg…    183    NA brown      fair        blue              82 male  mascu…
## # … with 77 more rows, and 5 more variables: homeworld <chr>, species <chr>,
## #   films <list>, vehicles <list>, starships <list>
```


# 3) dplyr::select

Use commas to select multiple columns out of a data frame. (You can also use "first:last" for consecutive columns). Deselect a column with "-".

```r
starwars %>% 
  select(name:skin_color, species, -height)
```

```
## # A tibble: 87 × 5
##    name                mass hair_color    skin_color  species
##    <chr>              <dbl> <chr>         <chr>       <chr>  
##  1 Luke Skywalker        77 blond         fair        Human  
##  2 C-3PO                 75 <NA>          gold        Droid  
##  3 R2-D2                 32 <NA>          white, blue Droid  
##  4 Darth Vader          136 none          white       Human  
##  5 Leia Organa           49 brown         light       Human  
##  6 Owen Lars            120 brown, grey   light       Human  
##  7 Beru Whitesun lars    75 brown         light       Human  
##  8 R5-D4                 32 <NA>          white, red  Droid  
##  9 Biggs Darklighter     84 black         light       Human  
## 10 Obi-Wan Kenobi        77 auburn, white fair        Human  
## # … with 77 more rows
```


You can also rename some (or all) of your selected variables in place.

```r
starwars %>%
  select(alias=name, crib=homeworld, sex=gender) 
```

```
## # A tibble: 87 × 3
##    alias              crib     sex      
##    <chr>              <chr>    <chr>    
##  1 Luke Skywalker     Tatooine masculine
##  2 C-3PO              Tatooine masculine
##  3 R2-D2              Naboo    masculine
##  4 Darth Vader        Tatooine masculine
##  5 Leia Organa        Alderaan feminine 
##  6 Owen Lars          Tatooine masculine
##  7 Beru Whitesun lars Tatooine feminine 
##  8 R5-D4              Tatooine masculine
##  9 Biggs Darklighter  Tatooine masculine
## 10 Obi-Wan Kenobi     Stewjon  masculine
## # … with 77 more rows
```

If you just want to rename columns without subsetting them, you can use `rename`. Try this now by replacing `select(...)` in the above code chunk with `rename(...)`.



The `select(contains(PATTERN))` option provides a nice shortcut in relevant cases.

```r
starwars %>% 
  select(name, contains("color"))
```

```
## # A tibble: 87 × 4
##    name               hair_color    skin_color  eye_color
##    <chr>              <chr>         <chr>       <chr>    
##  1 Luke Skywalker     blond         fair        blue     
##  2 C-3PO              <NA>          gold        yellow   
##  3 R2-D2              <NA>          white, blue red      
##  4 Darth Vader        none          white       yellow   
##  5 Leia Organa        brown         light       brown    
##  6 Owen Lars          brown, grey   light       blue     
##  7 Beru Whitesun lars brown         light       blue     
##  8 R5-D4              <NA>          white, red  red      
##  9 Biggs Darklighter  black         light       brown    
## 10 Obi-Wan Kenobi     auburn, white fair        blue-gray
## # … with 77 more rows
```
…
*Note:* The new `relocate` function coming in dplyr 1.0.0 is bringing a lot more functionality to ordering of columns. See [here](https://www.tidyverse.org/blog/2020/03/dplyr-1-0-0-select-rename-relocate/).


You can create new columns from scratch, or (more commonly) as transformations of existing columns.

```r
starwars %>% 
  select(name, birth_year) %>%
  mutate(dog_years = birth_year * 7) %>%
  mutate(comment = paste0(name, " is ", dog_years, " in dog years."))
```

```
## # A tibble: 87 × 4
##    name               birth_year dog_years comment                              
##    <chr>                   <dbl>     <dbl> <chr>                                
##  1 Luke Skywalker           19        133  Luke Skywalker is 133 in dog years.  
##  2 C-3PO                   112        784  C-3PO is 784 in dog years.           
##  3 R2-D2                    33        231  R2-D2 is 231 in dog years.           
##  4 Darth Vader              41.9      293. Darth Vader is 293.3 in dog years.   
##  5 Leia Organa              19        133  Leia Organa is 133 in dog years.     
##  6 Owen Lars                52        364  Owen Lars is 364 in dog years.       
##  7 Beru Whitesun lars       47        329  Beru Whitesun lars is 329 in dog yea…
##  8 R5-D4                    NA         NA  R5-D4 is NA in dog years.            
##  9 Biggs Darklighter        24        168  Biggs Darklighter is 168 in dog year…
## 10 Obi-Wan Kenobi           57        399  Obi-Wan Kenobi is 399 in dog years.  
## # … with 77 more rows
```


*Note:* `mutate` is order aware. So you can chain multiple mutates in a single call.

```r
starwars %>% 
  select(name, birth_year) %>%
  mutate(
    dog_years = birth_year * 7, ## Separate with a comma
    comment = paste0(name, " is ", dog_years, " in dog years.")
    )
```

```
## # A tibble: 87 × 4
##    name               birth_year dog_years comment                              
##    <chr>                   <dbl>     <dbl> <chr>                                
##  1 Luke Skywalker           19        133  Luke Skywalker is 133 in dog years.  
##  2 C-3PO                   112        784  C-3PO is 784 in dog years.           
##  3 R2-D2                    33        231  R2-D2 is 231 in dog years.           
##  4 Darth Vader              41.9      293. Darth Vader is 293.3 in dog years.   
##  5 Leia Organa              19        133  Leia Organa is 133 in dog years.     
##  6 Owen Lars                52        364  Owen Lars is 364 in dog years.       
##  7 Beru Whitesun lars       47        329  Beru Whitesun lars is 329 in dog yea…
##  8 R5-D4                    NA         NA  R5-D4 is NA in dog years.            
##  9 Biggs Darklighter        24        168  Biggs Darklighter is 168 in dog year…
## 10 Obi-Wan Kenobi           57        399  Obi-Wan Kenobi is 399 in dog years.  
## # … with 77 more rows
```
…
Particularly useful in combination with the `group_by` command.

```r
starwars %>% 
  group_by(species, gender) %>% 
  summarise(mean_height = mean(height, na.rm = T))
```

```
## `summarise()` has grouped output by 'species'. You can override using the `.groups` argument.
```

```
## # A tibble: 42 × 3
## # Groups:   species [38]
##    species   gender    mean_height
##    <chr>     <chr>           <dbl>
##  1 Aleena    masculine          79
##  2 Besalisk  masculine         198
##  3 Cerean    masculine         198
##  4 Chagrian  masculine         196
##  5 Clawdite  feminine          168
##  6 Droid     feminine           96
##  7 Droid     masculine         140
##  8 Dug       masculine         112
##  9 Ewok      masculine          88
## 10 Geonosian masculine         183
## # … with 32 more rows
```
…
```r
left_join(flights, planes) %>%
  select(year, month, day, dep_time, arr_time, carrier, flight, tailnum, type, model)
```

```
## Joining, by = c("year", "tailnum")
```

```
## # A tibble: 336,776 × 10
##     year month   day dep_time arr_time carrier flight tailnum type  model
##    <int> <int> <int>    <int>    <int> <chr>    <int> <chr>   <chr> <chr>
##  1  2013     1     1      517      830 UA        1545 N14228  <NA>  <NA> 
##  2  2013     1     1      533      850 UA        1714 N24211  <NA>  <NA> 
##  3  2013     1     1      542      923 AA        1141 N619AA  <NA>  <NA> 
##  4  2013     1     1      544     1004 B6         725 N804JB  <NA>  <NA> 
##  5  2013     1     1      554      812 DL         461 N668DN  <NA>  <NA> 
##  6  2013     1     1      554      740 UA        1696 N39463  <NA>  <NA> 
##  7  2013     1     1      555      913 B6         507 N516JB  <NA>  <NA> 
##  8  2013     1     1      557      709 EV        5708 N829AS  <NA>  <NA> 
##  9  2013     1     1      557      838 B6          79 N593JB  <NA>  <NA> 
## 10  2013     1     1      558      753 AA         301 N3ALAA  <NA>  <NA> 
## # … with 336,766 more rows
```
…
